Project4/PC4_SimpleProcessor_basecode/cpuone-base/simulation/modelsim/msim_transcript
# Reading C:/intelFPGA_lite/17.0/modelsim_ase/tcl/vsim/pref.tcl
# do Processor_run_msim_rtl_verilog.do
# if {[file exists rtl_work]} {
# 	vdel -lib rtl_work -all
# }
# vlib rtl_work
# vmap work rtl_work
# Model Technology ModelSim - Intel FPGA Edition vmap 10.5b Lib Mapping Utility 2016.10 Oct  5 2016
# vmap work rtl_work 
# Copying C:/intelFPGA_lite/17.0/modelsim_ase/win32aloem/../modelsim.ini to modelsim.ini
# Modifying modelsim.ini
# 
# vlog -vlog01compat -work work +incdir+C:/Users/xs90/Desktop/ECE550_PC4/PC4_SimpleProcessor_basecode/cpuone-base {C:/Users/xs90/Desktop/ECE550_PC4/PC4_SimpleProcessor_basecode/cpuone-base/skeleton.v}
# Model Technology ModelSim - Intel FPGA Edition vlog 10.5b Compiler 2016.10 Oct  5 2016
# Start time: 14:28:59 on Nov 04,2024
# vlog -reportprogress 300 -vlog01compat -work work "+incdir+C:/Users/xs90/Desktop/ECE550_PC4/PC4_SimpleProcessor_basecode/cpuone-base" C:/Users/xs90/Desktop/ECE550_PC4/PC4_SimpleProcessor_basecode/cpuone-base/skeleton.v 
# -- Compiling module skeleton
# 
# Top level modules:
# 	skeleton
# End time: 14:28:59 on Nov 04,2024, Elapsed time: 0:00:00
# Errors: 0, Warnings: 0
# vlog -vlog01compat -work work +incdir+C:/Users/xs90/Desktop/ECE550_PC4/PC4_SimpleProcessor_basecode/cpuone-base {C:/Users/xs90/Desktop/ECE550_PC4/PC4_SimpleProcessor_basecode/cpuone-base/regfile.v}
# Model Technology ModelSim - Intel FPGA Edition vlog 10.5b Compiler 2016.10 Oct  5 2016
# Start time: 14:28:59 on Nov 04,2024
# vlog -reportprogress 300 -vlog01compat -work work "+incdir+C:/Users/xs90/Desktop/ECE550_PC4/PC4_SimpleProcessor_basecode/cpuone-base" C:/Users/xs90/Desktop/ECE550_PC4/PC4_SimpleProcessor_basecode/cpuone-base/regfile.v 
# -- Compiling module regfile
# 
# Top level modules:
# 	regfile
# End time: 14:28:59 on Nov 04,2024, Elapsed time: 0:00:00
# Errors: 0, Warnings: 0
# vlog -vlog01compat -work work +incdir+C:/Users/xs90/Desktop/ECE550_PC4/PC4_SimpleProcessor_basecode/cpuone-base {C:/Users/xs90/Desktop/ECE550_PC4/PC4_SimpleProcessor_basecode/cpuone-base/processor.v}
# Model Technology ModelSim - Intel FPGA Edition vlog 10.5b Compiler 2016.10 Oct  5 2016
# Start time: 14:28:59 on Nov 04,2024
# vlog -reportprogress 300 -vlog01compat -work work "+incdir+C:/Users/xs90/Desktop/ECE550_PC4/PC4_SimpleProcessor_basecode/cpuone-base" C:/Users/xs90/Desktop/ECE550_PC4/PC4_SimpleProcessor_basecode/cpuone-base/processor.v 
# -- Compiling module processor
# 
# Top level modules:
# 	processor
# End time: 14:28:59 on Nov 04,2024, Elapsed time: 0:00:00
# Errors: 0, Warnings: 0
# vlog -vlog01compat -work work +incdir+C:/Users/xs90/Desktop/ECE550_PC4/PC4_SimpleProcessor_basecode/cpuone-base {C:/Users/xs90/Desktop/ECE550_PC4/PC4_SimpleProcessor_basecode/cpuone-base/dmem.v}
# Model Technology ModelSim - Intel FPGA Edition vlog 10.5b Compiler 2016.10 Oct  5 2016
# Start time: 14:28:59 on Nov 04,2024
# vlog -reportprogress 300 -vlog01compat -work work "+incdir+C:/Users/xs90/Desktop/ECE550_PC4/PC4_SimpleProcessor_basecode/cpuone-base" C:/Users/xs90/Desktop/ECE550_PC4/PC4_SimpleProcessor_basecode/cpuone-base/dmem.v 
# -- Compiling module dmem
# 
# Top level modules:
# 	dmem
# End time: 14:28:59 on Nov 04,2024, Elapsed time: 0:00:00
# Errors: 0, Warnings: 0
# vlog -vlog01compat -work work +incdir+C:/Users/xs90/Desktop/ECE550_PC4/PC4_SimpleProcessor_basecode/cpuone-base {C:/Users/xs90/Desktop/ECE550_PC4/PC4_SimpleProcessor_basecode/cpuone-base/control.v}
# Model Technology ModelSim - Intel FPGA Edition vlog 10.5b Compiler 2016.10 Oct  5 2016
# Start time: 14:28:59 on Nov 04,2024
# vlog -reportprogress 300 -vlog01compat -work work "+incdir+C:/Users/xs90/Desktop/ECE550_PC4/PC4_SimpleProcessor_basecode/cpuone-base" C:/Users/xs90/Desktop/ECE550_PC4/PC4_SimpleProcessor_basecode/cpuone-base/control.v 
# -- Compiling module control
# 
# Top level modules:
# 	control
# End time: 14:28:59 on Nov 04,2024, Elapsed time: 0:00:00
# Errors: 0, Warnings: 0
# vlog -vlog01compat -work work +incdir+C:/Users/xs90/Desktop/ECE550_PC4/PC4_SimpleProcessor_basecode/cpuone-base {C:/Users/xs90/Desktop/ECE550_PC4/PC4_SimpleProcessor_basecode/cpuone-base/alu.v}
# Model Technology ModelSim - Intel FPGA Edition vlog 10.5b Compiler 2016.10 Oct  5 2016
# Start time: 14:28:59 on Nov 04,2024
# vlog -reportprogress 300 -vlog01compat -work work "+incdir+C:/Users/xs90/Desktop/ECE550_PC4/PC4_SimpleProcessor_basecode/cpuone-base" C:/Users/xs90/Desktop/ECE550_PC4/PC4_SimpleProcessor_basecode/cpuone-base/alu.v 
# -- Compiling module alu
# 
# Top level modules:
# 	alu
# End time: 14:29:00 on Nov 04,2024, Elapsed time: 0:00:01
# Errors: 0, Warnings: 0
# vlog -vlog01compat -work work +incdir+C:/Users/xs90/Desktop/ECE550_PC4/PC4_SimpleProcessor_basecode/cpuone-base {C:/Users/xs90/Desktop/ECE550_PC4/PC4_SimpleProcessor_basecode/cpuone-base/imem.v}
# Model Technology ModelSim - Intel FPGA Edition vlog 10.5b Compiler 2016.10 Oct  5 2016
# Start time: 14:29:00 on Nov 04,2024
# vlog -reportprogress 300 -vlog01compat -work work "+incdir+C:/Users/xs90/Desktop/ECE550_PC4/PC4_SimpleProcessor_basecode/cpuone-base" C:/Users/xs90/Desktop/ECE550_PC4/PC4_SimpleProcessor_basecode/cpuone-base/imem.v 
# -- Compiling module imem
# 
# Top level modules:
# 	imem
# End time: 14:29:00 on Nov 04,2024, Elapsed time: 0:00:00
# Errors: 0, Warnings: 0
# vlog -vlog01compat -work work +incdir+C:/Users/xs90/Desktop/ECE550_PC4/PC4_SimpleProcessor_basecode/cpuone-base {C:/Users/xs90/Desktop/ECE550_PC4/PC4_SimpleProcessor_basecode/cpuone-base/dffe.v}
# Model Technology ModelSim - Intel FPGA Edition vlog 10.5b Compiler 2016.10 Oct  5 2016
# Start time: 14:29:00 on Nov 04,2024
# vlog -reportprogress 300 -vlog01compat -work work "+incdir+C:/Users/xs90/Desktop/ECE550_PC4/PC4_SimpleProcessor_basecode/cpuone-base" C:/Users/xs90/Desktop/ECE550_PC4/PC4_SimpleProcessor_basecode/cpuone-base/dffe.v 
# -- Compiling module dffe_ref
# 
# Top level modules:
# 	dffe_ref
# End time: 14:29:00 on Nov 04,2024, Elapsed time: 0:00:00
# Errors: 0, Warnings: 0
# vlog -vlog01compat -work work +incdir+C:/Users/xs90/Desktop/ECE550_PC4/PC4_SimpleProcessor_basecode/cpuone-base {C:/Users/xs90/Desktop/ECE550_PC4/PC4_SimpleProcessor_basecode/cpuone-base/div4_clk.v}
# Model Technology ModelSim - Intel FPGA Edition vlog 10.5b Compiler 2016.10 Oct  5 2016
# Start time: 14:29:00 on Nov 04,2024
# vlog -reportprogress 300 -vlog01compat -work work "+incdir+C:/Users/xs90/Desktop/ECE550_PC4/PC4_SimpleProcessor_basecode/cpuone-base" C:/Users/xs90/Desktop/ECE550_PC4/PC4_SimpleProcessor_basecode/cpuone-base/div4_clk.v 
# -- Compiling module div4_clk
# 
# Top level modules:
# 	div4_clk
# End time: 14:29:00 on Nov 04,2024, Elapsed time: 0:00:00
# Errors: 0, Warnings: 0
# 
# vlog -vlog01compat -work work +incdir+C:/Users/xs90/Desktop/ECE550_PC4/PC4_SimpleProcessor_basecode/cpuone-base {C:/Users/xs90/Desktop/ECE550_PC4/PC4_SimpleProcessor_basecode/cpuone-base/Processor_tb.v}
# Model Technology ModelSim - Intel FPGA Edition vlog 10.5b Compiler 2016.10 Oct  5 2016
# Start time: 14:29:00 on Nov 04,2024
# vlog -reportprogress 300 -vlog01compat -work work "+incdir+C:/Users/xs90/Desktop/ECE550_PC4/PC4_SimpleProcessor_basecode/cpuone-base" C:/Users/xs90/Desktop/ECE550_PC4/PC4_SimpleProcessor_basecode/cpuone-base/Processor_tb.v 
# -- Compiling module Processor_tb
# 
# Top level modules:
# 	Processor_tb
# End time: 14:29:01 on Nov 04,2024, Elapsed time: 0:00:01
# Errors: 0, Warnings: 0
# 
# vsim -t 1ps -L altera_ver -L lpm_ver -L sgate_ver -L altera_mf_ver -L altera_lnsim_ver -L cycloneive_ver -L rtl_work -L work -voptargs="+acc"  Processor_tb
# vsim -t 1ps -L altera_ver -L lpm_ver -L sgate_ver -L altera_mf_ver -L altera_lnsim_ver -L cycloneive_ver -L rtl_work -L work -voptargs=""+acc"" Processor_tb 
# Start time: 14:29:01 on Nov 04,2024
# Loading work.Processor_tb
# Loading work.skeleton
# Loading work.div4_clk
# Loading work.imem
# Loading altera_mf_ver.altsyncram
# Loading work.dmem
# Loading work.regfile
# Loading work.processor
# Loading work.alu
# Loading work.control
# Loading altera_mf_ver.altsyncram_body
# Loading altera_mf_ver.ALTERA_DEVICE_FAMILIES
# Loading altera_mf_ver.ALTERA_MF_MEMORY_INITIALIZATION
# Loading work.dffe_ref
# 
# add wave *
# view structure
# .main_pane.structure.interior.cs.body.struct
# view signals
# .main_pane.objects.interior.cs.body.tree
# run -all
# Time	PC	Instruction	R1	R2	R3	R4	R5	R6	R7	R8	R9	Mem[1]	Mem[2]
# 100	00000000	2840ffff	         0	         0	         0	         0	         0	         0	         0	         0	         0	0	0
# 170	00000001	2840ffff	     65535	         0	         0	         0	         0	         0	         0	         0	         0	0	0
# 210	00000001	00420790	     65535	         0	         0	         0	         0	         0	         0	         0	         0	0	0
# 330	00000002	00420790	2147450880	         0	         0	         0	         0	         0	         0	         0	         0	0	0
# 370	00000002	28427fff	2147450880	         0	         0	         0	         0	         0	         0	         0	         0	0	0
# 490	00000003	28427fff	2147483647	         0	         0	         0	         0	         0	         0	         0	         0	0	0
# 530	00000003	28800001	2147483647	         0	         0	         0	         0	         0	         0	         0	         0	0	0
# 650	00000004	28800001	2147483647	         1	         0	         0	         0	         0	         0	         0	         0	0	0
# 690	00000004	00c22000	2147483647	         1	         0	         0	         0	         0	         0	         0	         0	0	0
# 810	00000005	00c22000	2147483647	         1	         0	         0	         0	         0	         0	         0	         0	0	0
# 850	00000005	2881ffff	2147483647	         1	         0	         0	         0	         0	         0	         0	         0	0	0
# 970	00000006	2881ffff	2147483647	4294967295	         0	         0	         0	         0	         0	         0	         0	0	0
# 1010	00000006	00c22004	2147483647	4294967295	         0	         0	         0	         0	         0	         0	         0	0	0
# 1130	00000007	00c22004	2147483647	4294967295	         0	         0	         0	         0	         0	         0	         0	0	0
# 1170	00000007	00000000	2147483647	4294967295	         0	         0	         0	         0	         0	         0	         0	0	0
# 1290	00000008	00000000	2147483647	4294967295	         0	         0	         0	         0	         0	         0	         0	0	0
# 1450	00000009	00000000	2147483647	4294967295	         0	         0	         0	         0	         0	         0	         0	0	0
# 1610	0000000a	00000000	2147483647	4294967295	         0	         0	         0	         0	         0	         0	         0	0	0
# 1770	0000000b	00000000	2147483647	4294967295	         0	         0	         0	         0	         0	         0	         0	0	0
# 1930	0000000c	00000000	2147483647	4294967295	         0	         0	         0	         0	         0	         0	         0	0	0
# 2090	0000000d	00000000	2147483647	4294967295	         0	         0	         0	         0	         0	         0	         0	0	0
# 2250	0000000e	00000000	2147483647	4294967295	         0	         0	         0	         0	         0	         0	         0	0	0
# 2410	0000000f	00000000	2147483647	4294967295	         0	         0	         0	         0	         0	         0	         0	0	0
# 2570	00000010	00000000	2147483647	4294967295	         0	         0	         0	         0	         0	         0	         0	0	0
# 2730	00000011	00000000	2147483647	4294967295	         0	         0	         0	         0	         0	         0	         0	0	0
# 2890	00000012	00000000	2147483647	4294967295	         0	         0	         0	         0	         0	         0	         0	0	0
# 3050	00000013	00000000	2147483647	4294967295	         0	         0	         0	         0	         0	         0	         0	0	0
# 3210	00000014	00000000	2147483647	4294967295	         0	         0	         0	         0	         0	         0	         0	0	0
# 3370	00000015	00000000	2147483647	4294967295	         0	         0	         0	         0	         0	         0	         0	0	0
# 3530	00000016	00000000	2147483647	4294967295	         0	         0	         0	         0	         0	         0	         0	0	0
# 3690	00000017	00000000	2147483647	4294967295	         0	         0	         0	         0	         0	         0	         0	0	0
# 3850	00000018	00000000	2147483647	4294967295	         0	         0	         0	         0	         0	         0	         0	0	0
# 4010	00000019	00000000	2147483647	4294967295	         0	         0	         0	         0	         0	         0	         0	0	0
# 4170	0000001a	00000000	2147483647	4294967295	         0	         0	         0	         0	         0	         0	         0	0	0
# 4330	0000001b	00000000	2147483647	4294967295	         0	         0	         0	         0	         0	         0	         0	0	0
# 4490	0000001c	00000000	2147483647	4294967295	         0	         0	         0	         0	         0	         0	         0	0	0
# 4650	0000001d	00000000	2147483647	4294967295	         0	         0	         0	         0	         0	         0	         0	0	0
# 4810	0000001e	00000000	2147483647	4294967295	         0	         0	         0	         0	         0	         0	         0	0	0
# 4970	0000001f	00000000	2147483647	4294967295	         0	         0	         0	         0	         0	         0	         0	0	0
# ** Note: $stop    : C:/Users/xs90/Desktop/ECE550_PC4/PC4_SimpleProcessor_basecode/cpuone-base/Processor_tb.v(37)
#    Time: 5100 ns  Iteration: 0  Instance: /Processor_tb
# Break in Module Processor_tb at C:/Users/xs90/Desktop/ECE550_PC4/PC4_SimpleProcessor_basecode/cpuone-base/Processor_tb.v line 37
add wave -position end  sim:/Processor_tb/dut/my_regfile/registers
restart
run -continue
# Time	PC	Instruction	R1	R2	R3	R4	R5	R6	R7	R8	R9	Mem[1]	Mem[2]
# 100	00000000	2840ffff	         0	         0	         0	         0	         0	         0	         0	         0	         0	0	0
# 170	00000001	2840ffff	     65535	         0	         0	         0	         0	         0	         0	         0	         0	0	0
# 210	00000001	00420790	     65535	         0	         0	         0	         0	         0	         0	         0	         0	0	0
# 330	00000002	00420790	2147450880	         0	         0	         0	         0	         0	         0	         0	         0	0	0
# 370	00000002	28427fff	2147450880	         0	         0	         0	         0	         0	         0	         0	         0	0	0
# 490	00000003	28427fff	2147483647	         0	         0	         0	         0	         0	         0	         0	         0	0	0
# 530	00000003	28800001	2147483647	         0	         0	         0	         0	         0	         0	         0	         0	0	0
# 650	00000004	28800001	2147483647	         1	         0	         0	         0	         0	         0	         0	         0	0	0
# 690	00000004	00c22000	2147483647	         1	         0	         0	         0	         0	         0	         0	         0	0	0
# 810	00000005	00c22000	2147483647	         1	         0	         0	         0	         0	         0	         0	         0	0	0
# 850	00000005	2881ffff	2147483647	         1	         0	         0	         0	         0	         0	         0	         0	0	0
# 970	00000006	2881ffff	2147483647	4294967295	         0	         0	         0	         0	         0	         0	         0	0	0
# 1010	00000006	00c22004	2147483647	4294967295	         0	         0	         0	         0	         0	         0	         0	0	0
# 1130	00000007	00c22004	2147483647	4294967295	         0	         0	         0	         0	         0	         0	         0	0	0
# 1170	00000007	00000000	2147483647	4294967295	         0	         0	         0	         0	         0	         0	         0	0	0
# 1290	00000008	00000000	2147483647	4294967295	         0	         0	         0	         0	         0	         0	         0	0	0
# 1450	00000009	00000000	2147483647	4294967295	         0	         0	         0	         0	         0	         0	         0	0	0
# 1610	0000000a	00000000	2147483647	4294967295	         0	         0	         0	         0	         0	         0	         0	0	0
# 1770	0000000b	00000000	2147483647	4294967295	         0	         0	         0	         0	         0	         0	         0	0	0
# 1930	0000000c	00000000	2147483647	4294967295	         0	         0	         0	         0	         0	         0	         0	0	0
# 2090	0000000d	00000000	2147483647	4294967295	         0	         0	         0	         0	         0	         0	         0	0	0
# 2250	0000000e	00000000	2147483647	4294967295	         0	         0	         0	         0	         0	         0	         0	0	0
# 2410	0000000f	00000000	2147483647	4294967295	         0	         0	         0	         0	         0	         0	         0	0	0
# 2570	00000010	00000000	2147483647	4294967295	         0	         0	         0	         0	         0	         0	         0	0	0
# 2730	00000011	00000000	2147483647	4294967295	         0	         0	         0	         0	         0	         0	         0	0	0
# 2890	00000012	00000000	2147483647	4294967295	         0	         0	         0	         0	         0	         0	         0	0	0
# 3050	00000013	00000000	2147483647	4294967295	         0	         0	         0	         0	         0	         0	         0	0	0
# 3210	00000014	00000000	2147483647	4294967295	         0	         0	         0	         0	         0	         0	         0	0	0
# 3370	00000015	00000000	2147483647	4294967295	         0	         0	         0	         0	         0	         0	         0	0	0
# 3530	00000016	00000000	2147483647	4294967295	         0	         0	         0	         0	         0	         0	         0	0	0
# 3690	00000017	00000000	2147483647	4294967295	         0	         0	         0	         0	         0	         0	         0	0	0
# 3850	00000018	00000000	2147483647	4294967295	         0	         0	         0	         0	         0	         0	         0	0	0
# 4010	00000019	00000000	2147483647	4294967295	         0	         0	         0	         0	         0	         0	         0	0	0
# 4170	0000001a	00000000	2147483647	4294967295	         0	         0	         0	         0	         0	         0	         0	0	0
# 4330	0000001b	00000000	2147483647	4294967295	         0	         0	         0	         0	         0	         0	         0	0	0
# 4490	0000001c	00000000	2147483647	4294967295	         0	         0	         0	         0	         0	         0	         0	0	0
# 4650	0000001d	00000000	2147483647	4294967295	         0	         0	         0	         0	         0	         0	         0	0	0
# 4810	0000001e	00000000	2147483647	4294967295	         0	         0	         0	         0	         0	         0	         0	0	0
# 4970	0000001f	00000000	2147483647	4294967295	         0	         0	         0	         0	         0	         0	         0	0	0
# ** Note: $stop    : C:/Users/xs90/Desktop/ECE550_PC4/PC4_SimpleProcessor_basecode/cpuone-base/Processor_tb.v(37)
#    Time: 5100 ns  Iteration: 0  Instance: /Processor_tb
# Break in Module Processor_tb at C:/Users/xs90/Desktop/ECE550_PC4/PC4_SimpleProcessor_basecode/cpuone-base/Processor_tb.v line 37
add wave -position end  sim:/Processor_tb/dut/my_processor/address_imem
restart
run -continue
# Time	PC	Instruction	R1	R2	R3	R4	R5	R6	R7	R8	R9	Mem[1]	Mem[2]
# 100	00000000	2840ffff	         0	         0	         0	         0	         0	         0	         0	         0	         0	0	0
# 170	00000001	2840ffff	     65535	         0	         0	         0	         0	         0	         0	         0	         0	0	0
# 210	00000001	00420790	     65535	         0	         0	         0	         0	         0	         0	         0	         0	0	0
# 330	00000002	00420790	2147450880	         0	         0	         0	         0	         0	         0	         0	         0	0	0
# 370	00000002	28427fff	2147450880	         0	         0	         0	         0	         0	         0	         0	         0	0	0
# 490	00000003	28427fff	2147483647	         0	         0	         0	         0	         0	         0	         0	         0	0	0
# 530	00000003	28800001	2147483647	         0	         0	         0	         0	         0	         0	         0	         0	0	0
# 650	00000004	28800001	2147483647	         1	         0	         0	         0	         0	         0	         0	         0	0	0
# 690	00000004	00c22000	2147483647	         1	         0	         0	         0	         0	         0	         0	         0	0	0
# 810	00000005	00c22000	2147483647	         1	         0	         0	         0	         0	         0	         0	         0	0	0
# 850	00000005	2881ffff	2147483647	         1	         0	         0	         0	         0	         0	         0	         0	0	0
# 970	00000006	2881ffff	2147483647	4294967295	         0	         0	         0	         0	         0	         0	         0	0	0
# 1010	00000006	00c22004	2147483647	4294967295	         0	         0	         0	         0	         0	         0	         0	0	0
# 1130	00000007	00c22004	2147483647	4294967295	         0	         0	         0	         0	         0	         0	         0	0	0
# 1170	00000007	00000000	2147483647	4294967295	         0	         0	         0	         0	         0	         0	         0	0	0
# 1290	00000008	00000000	2147483647	4294967295	         0	         0	         0	         0	         0	         0	         0	0	0
# 1450	00000009	00000000	2147483647	4294967295	         0	         0	         0	         0	         0	         0	         0	0	0
# 1610	0000000a	00000000	2147483647	4294967295	         0	         0	         0	         0	         0	         0	         0	0	0
# 1770	0000000b	00000000	2147483647	4294967295	         0	         0	         0	         0	         0	         0	         0	0	0
# 1930	0000000c	00000000	2147483647	4294967295	         0	         0	         0	         0	         0	         0	         0	0	0
# 2090	0000000d	00000000	2147483647	4294967295	         0	         0	         0	         0	         0	         0	         0	0	0
# 2250	0000000e	00000000	2147483647	4294967295	         0	         0	         0	         0	         0	         0	         0	0	0
# 2410	0000000f	00000000	2147483647	4294967295	         0	         0	         0	         0	         0	         0	         0	0	0
# 2570	00000010	00000000	2147483647	4294967295	         0	         0	         0	         0	         0	         0	         0	0	0
# 2730	00000011	00000000	2147483647	4294967295	         0	         0	         0	         0	         0	         0	         0	0	0
# 2890	00000012	00000000	2147483647	4294967295	         0	         0	         0	         0	         0	         0	         0	0	0
# 3050	00000013	00000000	2147483647	4294967295	         0	         0	         0	         0	         0	         0	         0	0	0
# 3210	00000014	00000000	2147483647	4294967295	         0	         0	         0	         0	         0	         0	         0	0	0
# 3370	00000015	00000000	2147483647	4294967295	         0	         0	         0	         0	         0	         0	         0	0	0
# 3530	00000016	00000000	2147483647	4294967295	         0	         0	         0	         0	         0	         0	         0	0	0
# 3690	00000017	00000000	2147483647	4294967295	         0	         0	         0	         0	         0	         0	         0	0	0
# 3850	00000018	00000000	2147483647	4294967295	         0	         0	         0	         0	         0	         0	         0	0	0
# 4010	00000019	00000000	2147483647	4294967295	         0	         0	         0	         0	         0	         0	         0	0	0
# 4170	0000001a	00000000	2147483647	4294967295	         0	         0	         0	         0	         0	         0	         0	0	0
# 4330	0000001b	00000000	2147483647	4294967295	         0	         0	         0	         0	         0	         0	         0	0	0
# 4490	0000001c	00000000	2147483647	4294967295	         0	         0	         0	         0	         0	         0	         0	0	0
# 4650	0000001d	00000000	2147483647	4294967295	         0	         0	         0	         0	         0	         0	         0	0	0
# 4810	0000001e	00000000	2147483647	4294967295	         0	         0	         0	         0	         0	         0	         0	0	0
# 4970	0000001f	00000000	2147483647	4294967295	         0	         0	         0	         0	         0	         0	         0	0	0
# ** Note: $stop    : C:/Users/xs90/Desktop/ECE550_PC4/PC4_SimpleProcessor_basecode/cpuone-base/Processor_tb.v(37)
#    Time: 5100 ns  Iteration: 0  Instance: /Processor_tb
# Break in Module Processor_tb at C:/Users/xs90/Desktop/ECE550_PC4/PC4_SimpleProcessor_basecode/cpuone-base/Processor_tb.v line 37
# End time: 14:32:37 on Nov 04,2024, Elapsed time: 0:03:36
# Errors: 0, Warnings: 0
